gene	Mesculenta	color
Manes.01G239000.5	Manes.01G239000.5	#9a3670
Manes.01G043200.4	Manes.01G043200.4	#9a3670
Manes.01G239500.1	Manes.01G239500.1	#9a3670
Manes.05G016200.3	Manes.05G016200.3	#9a3670
Manes.02G178800	Manes.02G178800	#9a3670
Manes.03G204900	Manes.03G204900	#9a3670
Manes.03G130950	Manes.03G130950	#9a3670
Manes.04G017000	Manes.04G017000	#9a3670
Manes.04G056400	Manes.04G056400	#9a3670
Manes.08G062900	Manes.08G062900	#9a3670