{
  "output_prefix": "Mesculenta_coverage/Mesculenta_671_",
  "indexes": ["Mesculenta-AFR_index.tar", "Mesculenta-AMR_index.tar", "Mesculenta-ASI_index.tar"],
  "target_genome": "Mesculenta-genomes/Mesculenta_671_v8.0.fa.gz",
  "target_contigs": [
    "Chromosome02",
    "Chromosome01",
    "Chromosome03",
    "Chromosome05",
    "Chromosome06",
    "Chromosome07",
    "Chromosome08",
    "Chromosome09",
    "Chromosome10",
    "Chromosome11"
  ],
  "chrom_sizes": "Mesculenta-chromsizes/Mesculenta_671_v8.0.fa.chrom.sizes",
  "threads": 64
}
